<svg width="207" height="190" viewBox="0 0 207 190" fill="none" xmlns="http://www.w3.org/2000/svg">
<path opacity="0.2" fill-rule="evenodd" clip-rule="evenodd" d="M194 8C194 8 2.98358 8 6.0484 8C9.11322 8 102.925 174 102.925 174L194 8Z" stroke="black" stroke-width="18"/>
</svg>
